{
  "project_info": {
    "project_number": "377490793049",
    "project_id": "runclublive",
    "storage_bucket": "runclublive.appspot.com"
  },
  "client": [
    {
      "client_info": {
        "mobilesdk_app_id": "1:377490793049:android:f2599cbeee6db44e4dc748",
        "android_client_info": {
          "package_name": "com.example.ui"
        }
      },
      "oauth_client": [
        {
          "client_id": "377490793049-68qc6iecmqdf75ltt8n8p5p2ffpu0jkb.apps.googleusercontent.com",
          "client_type": 3
        }
      ],
      "api_key": [
        {
          "current_key": "AIzaSyCBv_4FT6PiU8tHhJa6xsok4r1_ZJLfX8M"
        }
      ],
      "services": {
        "appinvite_service": {
          "other_platform_oauth_client": [
            {
              "client_id": "377490793049-68qc6iecmqdf75ltt8n8p5p2ffpu0jkb.apps.googleusercontent.com",
              "client_type": 3
            },
            {
              "client_id": "377490793049-ptdtmbqhtrhmo59u6eskf8mkchus8guc.apps.googleusercontent.com",
              "client_type": 2,
              "ios_info": {
                "bundle_id": "com.example.ui"
              }
            }
          ]
        }
      }
    }
  ],
  "configuration_version": "1"
}